{
    "current_page": 1,
    "data": [
        {
            "id": 34,
            "email": "april76@gmail.com",
            "username": "wisoky.eula",
            "phone": "+1.310.779.4841",
            "created_at": "2024-03-17 09:05:55",
            "lastlogin_at": null,
            "status_id": 6,
            "type_id": 3,
            "default_billing_id": null,
            "default_shipping_id": null,
            "affiliate_id": null,
            "cim_profile_id": null,
            "first_name": "Esther",
            "last_name": "Armstrong",
            "photo_id": null,
            "site_id": 1,
            "loyaltypoints_id": null,
            "profile_public": true,
            "send_verify_email": 0,
            "last_verify_attempt_date": null,
            "membership_status": false,
            "updated_at": null,
            "email_verified_at": null,
            "user": "wisoky.eula",
            "fullname": "Esther Armstrong",
            "status": {
                "id": 6,
                "name": "Awaiting Email Verification"
            },
            "type": {
                "id": 3,
                "name": "Enterprise",
                "default_account_status": 1,
                "custom_form_id": null,
                "email_template_id_creation_admin": 1,
                "email_template_id_creation_user": 1,
                "email_template_id_activate_user": 1,
                "discount_level_id": null,
                "verify_user_email": false,
                "filter_products": 0,
                "filter_categories": 0,
                "loyaltypoints_id": null,
                "use_specialties": true,
                "membership_level_id": null,
                "email_template_id_verify_email": 1,
                "affiliate_level_id": null,
                "is_trial": false
            }
        },
        {
            "id": 33,
            "email": "vschmeler@yahoo.com",
            "username": "hermann.erick",
            "phone": "(561) 548-9403",
            "created_at": "2024-03-17 09:05:55",
            "lastlogin_at": null,
            "status_id": 4,
            "type_id": 10,
            "default_billing_id": null,
            "default_shipping_id": null,
            "affiliate_id": null,
            "cim_profile_id": null,
            "first_name": "Eino",
            "last_name": "Ebert",
            "photo_id": null,
            "site_id": 1,
            "loyaltypoints_id": null,
            "profile_public": true,
            "send_verify_email": 0,
            "last_verify_attempt_date": null,
            "membership_status": false,
            "updated_at": null,
            "email_verified_at": null,
            "user": "hermann.erick",
            "fullname": "Eino Ebert",
            "status": {
                "id": 4,
                "name": "Awaiting Payment for Subscription Membership"
            },
            "type": {
                "id": 10,
                "name": "Enterprise - Auto Renew",
                "default_account_status": 1,
                "custom_form_id": null,
                "email_template_id_creation_admin": 1,
                "email_template_id_creation_user": 1,
                "email_template_id_activate_user": 1,
                "discount_level_id": null,
                "verify_user_email": false,
                "filter_products": 0,
                "filter_categories": 0,
                "loyaltypoints_id": null,
                "use_specialties": true,
                "membership_level_id": null,
                "email_template_id_verify_email": 1,
                "affiliate_level_id": null,
                "is_trial": false
            }
        },
        {
            "id": 32,
            "email": "powlowski.hollie@mckenzie.org",
            "username": "crist.wava",
            "phone": "(678) 223-6560",
            "created_at": "2024-03-17 09:05:55",
            "lastlogin_at": null,
            "status_id": 4,
            "type_id": 2,
            "default_billing_id": null,
            "default_shipping_id": null,
            "affiliate_id": null,
            "cim_profile_id": null,
            "first_name": "D'angelo",
            "last_name": "Eichmann",
            "photo_id": null,
            "site_id": 1,
            "loyaltypoints_id": null,
            "profile_public": true,
            "send_verify_email": 0,
            "last_verify_attempt_date": null,
            "membership_status": false,
            "updated_at": null,
            "email_verified_at": null,
            "user": "crist.wava",
            "fullname": "D'angelo Eichmann",
            "status": {
                "id": 4,
                "name": "Awaiting Payment for Subscription Membership"
            },
            "type": {
                "id": 2,
                "name": "Basic",
                "default_account_status": 1,
                "custom_form_id": null,
                "email_template_id_creation_admin": 1,
                "email_template_id_creation_user": 1,
                "email_template_id_activate_user": 1,
                "discount_level_id": null,
                "verify_user_email": false,
                "filter_products": 0,
                "filter_categories": 0,
                "loyaltypoints_id": null,
                "use_specialties": true,
                "membership_level_id": null,
                "email_template_id_verify_email": 1,
                "affiliate_level_id": null,
                "is_trial": false
            }
        },
        {
            "id": 31,
            "email": "austin.klocko@pollich.com",
            "username": "ozulauf",
            "phone": "810-328-6775",
            "created_at": "2024-03-17 09:05:55",
            "lastlogin_at": null,
            "status_id": 5,
            "type_id": 10,
            "default_billing_id": null,
            "default_shipping_id": null,
            "affiliate_id": null,
            "cim_profile_id": null,
            "first_name": "Wiley",
            "last_name": "Considine",
            "photo_id": null,
            "site_id": 1,
            "loyaltypoints_id": null,
            "profile_public": true,
            "send_verify_email": 0,
            "last_verify_attempt_date": null,
            "membership_status": false,
            "updated_at": null,
            "email_verified_at": null,
            "user": "ozulauf",
            "fullname": "Wiley Considine",
            "status": {
                "id": 5,
                "name": "Deleted"
            },
            "type": {
                "id": 10,
                "name": "Enterprise - Auto Renew",
                "default_account_status": 1,
                "custom_form_id": null,
                "email_template_id_creation_admin": 1,
                "email_template_id_creation_user": 1,
                "email_template_id_activate_user": 1,
                "discount_level_id": null,
                "verify_user_email": false,
                "filter_products": 0,
                "filter_categories": 0,
                "loyaltypoints_id": null,
                "use_specialties": true,
                "membership_level_id": null,
                "email_template_id_verify_email": 1,
                "affiliate_level_id": null,
                "is_trial": false
            }
        },
        {
            "id": 30,
            "email": "alanna.hartmann@leannon.com",
            "username": "haven.windler",
            "phone": "(914) 944-1028",
            "created_at": "2024-03-17 09:05:55",
            "lastlogin_at": null,
            "status_id": 5,
            "type_id": 1,
            "default_billing_id": null,
            "default_shipping_id": null,
            "affiliate_id": null,
            "cim_profile_id": null,
            "first_name": "Asia",
            "last_name": "Ernser",
            "photo_id": null,
            "site_id": 1,
            "loyaltypoints_id": null,
            "profile_public": true,
            "send_verify_email": 0,
            "last_verify_attempt_date": null,
            "membership_status": false,
            "updated_at": null,
            "email_verified_at": null,
            "user": "haven.windler",
            "fullname": "Asia Ernser",
            "status": {
                "id": 5,
                "name": "Deleted"
            },
            "type": {
                "id": 1,
                "name": "Standard",
                "default_account_status": 1,
                "custom_form_id": null,
                "email_template_id_creation_admin": 1,
                "email_template_id_creation_user": 1,
                "email_template_id_activate_user": 1,
                "discount_level_id": null,
                "verify_user_email": false,
                "filter_products": 0,
                "filter_categories": 0,
                "loyaltypoints_id": null,
                "use_specialties": true,
                "membership_level_id": null,
                "email_template_id_verify_email": 1,
                "affiliate_level_id": null,
                "is_trial": false
            }
        },
        {
            "id": 29,
            "email": "major.schimmel@hotmail.com",
            "username": "crooks.talon",
            "phone": "+1-731-530-8350",
            "created_at": "2024-03-17 09:05:55",
            "lastlogin_at": null,
            "status_id": 1,
            "type_id": 2,
            "default_billing_id": null,
            "default_shipping_id": null,
            "affiliate_id": null,
            "cim_profile_id": null,
            "first_name": "Maximilian",
            "last_name": "Kertzmann",
            "photo_id": null,
            "site_id": 1,
            "loyaltypoints_id": null,
            "profile_public": true,
            "send_verify_email": 0,
            "last_verify_attempt_date": null,
            "membership_status": false,
            "updated_at": null,
            "email_verified_at": null,
            "user": "crooks.talon",
            "fullname": "Maximilian Kertzmann",
            "status": {
                "id": 1,
                "name": "Active"
            },
            "type": {
                "id": 2,
                "name": "Basic",
                "default_account_status": 1,
                "custom_form_id": null,
                "email_template_id_creation_admin": 1,
                "email_template_id_creation_user": 1,
                "email_template_id_activate_user": 1,
                "discount_level_id": null,
                "verify_user_email": false,
                "filter_products": 0,
                "filter_categories": 0,
                "loyaltypoints_id": null,
                "use_specialties": true,
                "membership_level_id": null,
                "email_template_id_verify_email": 1,
                "affiliate_level_id": null,
                "is_trial": false
            }
        },
        {
            "id": 19,
            "email": "anabel.kutch@gmail.com",
            "username": "janessa87",
            "phone": "772-581-8431",
            "created_at": "2024-03-17 09:05:54",
            "lastlogin_at": null,
            "status_id": 2,
            "type_id": 1,
            "default_billing_id": null,
            "default_shipping_id": null,
            "affiliate_id": null,
            "cim_profile_id": null,
            "first_name": "Leon",
            "last_name": "Bergnaum",
            "photo_id": null,
            "site_id": 1,
            "loyaltypoints_id": null,
            "profile_public": true,
            "send_verify_email": 0,
            "last_verify_attempt_date": null,
            "membership_status": false,
            "updated_at": null,
            "email_verified_at": null,
            "user": "janessa87",
            "fullname": "Leon Bergnaum",
            "status": {
                "id": 2,
                "name": "Deactivated"
            },
            "type": {
                "id": 1,
                "name": "Standard",
                "default_account_status": 1,
                "custom_form_id": null,
                "email_template_id_creation_admin": 1,
                "email_template_id_creation_user": 1,
                "email_template_id_activate_user": 1,
                "discount_level_id": null,
                "verify_user_email": false,
                "filter_products": 0,
                "filter_categories": 0,
                "loyaltypoints_id": null,
                "use_specialties": true,
                "membership_level_id": null,
                "email_template_id_verify_email": 1,
                "affiliate_level_id": null,
                "is_trial": false
            }
        },
        {
            "id": 18,
            "email": "ondricka.easter@towne.biz",
            "username": "stacey38",
            "phone": "(712) 683-1340",
            "created_at": "2024-03-17 09:05:54",
            "lastlogin_at": null,
            "status_id": 1,
            "type_id": 1,
            "default_billing_id": null,
            "default_shipping_id": null,
            "affiliate_id": null,
            "cim_profile_id": null,
            "first_name": "Neoma",
            "last_name": "Schowalter",
            "photo_id": null,
            "site_id": 1,
            "loyaltypoints_id": null,
            "profile_public": true,
            "send_verify_email": 0,
            "last_verify_attempt_date": null,
            "membership_status": false,
            "updated_at": null,
            "email_verified_at": null,
            "user": "stacey38",
            "fullname": "Neoma Schowalter",
            "status": {
                "id": 1,
                "name": "Active"
            },
            "type": {
                "id": 1,
                "name": "Standard",
                "default_account_status": 1,
                "custom_form_id": null,
                "email_template_id_creation_admin": 1,
                "email_template_id_creation_user": 1,
                "email_template_id_activate_user": 1,
                "discount_level_id": null,
                "verify_user_email": false,
                "filter_products": 0,
                "filter_categories": 0,
                "loyaltypoints_id": null,
                "use_specialties": true,
                "membership_level_id": null,
                "email_template_id_verify_email": 1,
                "affiliate_level_id": null,
                "is_trial": false
            }
        },
        {
            "id": 20,
            "email": "jordyn.borer@yahoo.com",
            "username": "vroob",
            "phone": "(240) 289-3628",
            "created_at": "2024-03-17 09:05:54",
            "lastlogin_at": null,
            "status_id": 4,
            "type_id": 9,
            "default_billing_id": null,
            "default_shipping_id": null,
            "affiliate_id": null,
            "cim_profile_id": null,
            "first_name": "Ava",
            "last_name": "Herman",
            "photo_id": null,
            "site_id": 1,
            "loyaltypoints_id": null,
            "profile_public": true,
            "send_verify_email": 0,
            "last_verify_attempt_date": null,
            "membership_status": false,
            "updated_at": null,
            "email_verified_at": null,
            "user": "vroob",
            "fullname": "Ava Herman",
            "status": {
                "id": 4,
                "name": "Awaiting Payment for Subscription Membership"
            },
            "type": {
                "id": 9,
                "name": "Medallion - Auto Renew",
                "default_account_status": 1,
                "custom_form_id": null,
                "email_template_id_creation_admin": 1,
                "email_template_id_creation_user": 1,
                "email_template_id_activate_user": 1,
                "discount_level_id": null,
                "verify_user_email": false,
                "filter_products": 0,
                "filter_categories": 0,
                "loyaltypoints_id": null,
                "use_specialties": true,
                "membership_level_id": null,
                "email_template_id_verify_email": 1,
                "affiliate_level_id": null,
                "is_trial": false
            }
        },
        {
            "id": 21,
            "email": "larkin.travis@rice.biz",
            "username": "august.runolfsson",
            "phone": "+1.763.312.2560",
            "created_at": "2024-03-17 09:05:54",
            "lastlogin_at": null,
            "status_id": 5,
            "type_id": 2,
            "default_billing_id": null,
            "default_shipping_id": null,
            "affiliate_id": null,
            "cim_profile_id": null,
            "first_name": "Abdiel",
            "last_name": "Schiller",
            "photo_id": null,
            "site_id": 1,
            "loyaltypoints_id": null,
            "profile_public": true,
            "send_verify_email": 0,
            "last_verify_attempt_date": null,
            "membership_status": false,
            "updated_at": null,
            "email_verified_at": null,
            "user": "august.runolfsson",
            "fullname": "Abdiel Schiller",
            "status": {
                "id": 5,
                "name": "Deleted"
            },
            "type": {
                "id": 2,
                "name": "Basic",
                "default_account_status": 1,
                "custom_form_id": null,
                "email_template_id_creation_admin": 1,
                "email_template_id_creation_user": 1,
                "email_template_id_activate_user": 1,
                "discount_level_id": null,
                "verify_user_email": false,
                "filter_products": 0,
                "filter_categories": 0,
                "loyaltypoints_id": null,
                "use_specialties": true,
                "membership_level_id": null,
                "email_template_id_verify_email": 1,
                "affiliate_level_id": null,
                "is_trial": false
            }
        },
        {
            "id": 22,
            "email": "sophia.ondricka@hotmail.com",
            "username": "julius59",
            "phone": "+1 (409) 751-6980",
            "created_at": "2024-03-17 09:05:54",
            "lastlogin_at": null,
            "status_id": 2,
            "type_id": 6,
            "default_billing_id": null,
            "default_shipping_id": null,
            "affiliate_id": null,
            "cim_profile_id": null,
            "first_name": "Price",
            "last_name": "Walker",
            "photo_id": null,
            "site_id": 1,
            "loyaltypoints_id": null,
            "profile_public": true,
            "send_verify_email": 0,
            "last_verify_attempt_date": null,
            "membership_status": false,
            "updated_at": null,
            "email_verified_at": null,
            "user": "julius59",
            "fullname": "Price Walker",
            "status": {
                "id": 2,
                "name": "Deactivated"
            },
            "type": {
                "id": 6,
                "name": "Basic 30-day Trial",
                "default_account_status": 1,
                "custom_form_id": null,
                "email_template_id_creation_admin": 1,
                "email_template_id_creation_user": 1,
                "email_template_id_activate_user": 1,
                "discount_level_id": null,
                "verify_user_email": false,
                "filter_products": 0,
                "filter_categories": 0,
                "loyaltypoints_id": null,
                "use_specialties": true,
                "membership_level_id": null,
                "email_template_id_verify_email": 1,
                "affiliate_level_id": null,
                "is_trial": false
            }
        },
        {
            "id": 23,
            "email": "lawson47@yahoo.com",
            "username": "justina36",
            "phone": "+1.361.350.9187",
            "created_at": "2024-03-17 09:05:54",
            "lastlogin_at": null,
            "status_id": 1,
            "type_id": 9,
            "default_billing_id": null,
            "default_shipping_id": null,
            "affiliate_id": null,
            "cim_profile_id": null,
            "first_name": "Candelario",
            "last_name": "Runolfsson",
            "photo_id": null,
            "site_id": 1,
            "loyaltypoints_id": null,
            "profile_public": true,
            "send_verify_email": 0,
            "last_verify_attempt_date": null,
            "membership_status": false,
            "updated_at": null,
            "email_verified_at": null,
            "user": "justina36",
            "fullname": "Candelario Runolfsson",
            "status": {
                "id": 1,
                "name": "Active"
            },
            "type": {
                "id": 9,
                "name": "Medallion - Auto Renew",
                "default_account_status": 1,
                "custom_form_id": null,
                "email_template_id_creation_admin": 1,
                "email_template_id_creation_user": 1,
                "email_template_id_activate_user": 1,
                "discount_level_id": null,
                "verify_user_email": false,
                "filter_products": 0,
                "filter_categories": 0,
                "loyaltypoints_id": null,
                "use_specialties": true,
                "membership_level_id": null,
                "email_template_id_verify_email": 1,
                "affiliate_level_id": null,
                "is_trial": false
            }
        },
        {
            "id": 26,
            "email": "hill.lula@yahoo.com",
            "username": "skuhn",
            "phone": "+1-203-729-2300",
            "created_at": "2024-03-17 09:05:54",
            "lastlogin_at": null,
            "status_id": 1,
            "type_id": 6,
            "default_billing_id": null,
            "default_shipping_id": null,
            "affiliate_id": null,
            "cim_profile_id": null,
            "first_name": "Earnestine",
            "last_name": "Walker",
            "photo_id": null,
            "site_id": 1,
            "loyaltypoints_id": null,
            "profile_public": true,
            "send_verify_email": 0,
            "last_verify_attempt_date": null,
            "membership_status": false,
            "updated_at": null,
            "email_verified_at": null,
            "user": "skuhn",
            "fullname": "Earnestine Walker",
            "status": {
                "id": 1,
                "name": "Active"
            },
            "type": {
                "id": 6,
                "name": "Basic 30-day Trial",
                "default_account_status": 1,
                "custom_form_id": null,
                "email_template_id_creation_admin": 1,
                "email_template_id_creation_user": 1,
                "email_template_id_activate_user": 1,
                "discount_level_id": null,
                "verify_user_email": false,
                "filter_products": 0,
                "filter_categories": 0,
                "loyaltypoints_id": null,
                "use_specialties": true,
                "membership_level_id": null,
                "email_template_id_verify_email": 1,
                "affiliate_level_id": null,
                "is_trial": false
            }
        },
        {
            "id": 28,
            "email": "bkreiger@hotmail.com",
            "username": "schowalter.kristoffer",
            "phone": "1-385-837-0159",
            "created_at": "2024-03-17 09:05:54",
            "lastlogin_at": null,
            "status_id": 6,
            "type_id": 7,
            "default_billing_id": null,
            "default_shipping_id": null,
            "affiliate_id": null,
            "cim_profile_id": null,
            "first_name": "Aglae",
            "last_name": "Orn",
            "photo_id": null,
            "site_id": 1,
            "loyaltypoints_id": null,
            "profile_public": true,
            "send_verify_email": 0,
            "last_verify_attempt_date": null,
            "membership_status": false,
            "updated_at": null,
            "email_verified_at": null,
            "user": "schowalter.kristoffer",
            "fullname": "Aglae Orn",
            "status": {
                "id": 6,
                "name": "Awaiting Email Verification"
            },
            "type": {
                "id": 7,
                "name": "Basic - Auto Renew",
                "default_account_status": 1,
                "custom_form_id": null,
                "email_template_id_creation_admin": 1,
                "email_template_id_creation_user": 1,
                "email_template_id_activate_user": 1,
                "discount_level_id": null,
                "verify_user_email": false,
                "filter_products": 0,
                "filter_categories": 0,
                "loyaltypoints_id": null,
                "use_specialties": true,
                "membership_level_id": null,
                "email_template_id_verify_email": 1,
                "affiliate_level_id": null,
                "is_trial": false
            }
        },
        {
            "id": 27,
            "email": "russel.mathilde@weissnat.com",
            "username": "reilly.michel",
            "phone": "580-830-5066",
            "created_at": "2024-03-17 09:05:54",
            "lastlogin_at": null,
            "status_id": 1,
            "type_id": 9,
            "default_billing_id": null,
            "default_shipping_id": null,
            "affiliate_id": null,
            "cim_profile_id": null,
            "first_name": "Amir",
            "last_name": "Smitham",
            "photo_id": null,
            "site_id": 1,
            "loyaltypoints_id": null,
            "profile_public": true,
            "send_verify_email": 0,
            "last_verify_attempt_date": null,
            "membership_status": false,
            "updated_at": null,
            "email_verified_at": null,
            "user": "reilly.michel",
            "fullname": "Amir Smitham",
            "status": {
                "id": 1,
                "name": "Active"
            },
            "type": {
                "id": 9,
                "name": "Medallion - Auto Renew",
                "default_account_status": 1,
                "custom_form_id": null,
                "email_template_id_creation_admin": 1,
                "email_template_id_creation_user": 1,
                "email_template_id_activate_user": 1,
                "discount_level_id": null,
                "verify_user_email": false,
                "filter_products": 0,
                "filter_categories": 0,
                "loyaltypoints_id": null,
                "use_specialties": true,
                "membership_level_id": null,
                "email_template_id_verify_email": 1,
                "affiliate_level_id": null,
                "is_trial": false
            }
        }
    ],
    "first_page_url": "http:\/\/localhost:89\/api\/admin\/accounts?page=1",
    "from": 1,
    "last_page": 3,
    "last_page_url": "http:\/\/localhost:89\/api\/admin\/accounts?page=3",
    "links": [
        {
            "url": null,
            "label": "&laquo; Previous",
            "active": false
        },
        {
            "url": "http:\/\/localhost:89\/api\/admin\/accounts?page=1",
            "label": "1",
            "active": true
        },
        {
            "url": "http:\/\/localhost:89\/api\/admin\/accounts?page=2",
            "label": "2",
            "active": false
        },
        {
            "url": "http:\/\/localhost:89\/api\/admin\/accounts?page=3",
            "label": "3",
            "active": false
        },
        {
            "url": "http:\/\/localhost:89\/api\/admin\/accounts?page=2",
            "label": "Next &raquo;",
            "active": false
        }
    ],
    "next_page_url": "http:\/\/localhost:89\/api\/admin\/accounts?page=2",
    "path": "http:\/\/localhost:89\/api\/admin\/accounts",
    "per_page": 15,
    "prev_page_url": null,
    "to": 15,
    "total": 34
}