{
    "current_page": 1,
    "data": [
        {
            "id": 301,
            "order_id": 1,
            "user_id": 1,
            "note": "testing",
            "created": "2024-04-18T11:37:01.000000Z",
            "user": {
                "id": 1,
                "name": "Geovanny Wyman",
                "email": "john@782media.com",
                "email_verified_at": "2024-04-18T11:36:29.000000Z",
                "created_at": "2024-04-18T11:36:29.000000Z",
                "updated_at": "2024-04-18T11:36:29.000000Z"
            }
        },
        {
            "id": 16,
            "order_id": 1,
            "user_id": 1,
            "note": "Ullam ea illum est rerum dolor dolorem pariatur maiores.",
            "created": "2024-04-18T11:36:31.000000Z",
            "user": {
                "id": 1,
                "name": "Geovanny Wyman",
                "email": "john@782media.com",
                "email_verified_at": "2024-04-18T11:36:29.000000Z",
                "created_at": "2024-04-18T11:36:29.000000Z",
                "updated_at": "2024-04-18T11:36:29.000000Z"
            }
        },
        {
            "id": 30,
            "order_id": 1,
            "user_id": 1,
            "note": "A nisi voluptates cumque temporibus laudantium omnis accusamus.",
            "created": "2024-04-18T11:36:31.000000Z",
            "user": {
                "id": 1,
                "name": "Geovanny Wyman",
                "email": "john@782media.com",
                "email_verified_at": "2024-04-18T11:36:29.000000Z",
                "created_at": "2024-04-18T11:36:29.000000Z",
                "updated_at": "2024-04-18T11:36:29.000000Z"
            }
        },
        {
            "id": 29,
            "order_id": 1,
            "user_id": 1,
            "note": "Rerum rem facilis sint alias.",
            "created": "2024-04-18T11:36:31.000000Z",
            "user": {
                "id": 1,
                "name": "Geovanny Wyman",
                "email": "john@782media.com",
                "email_verified_at": "2024-04-18T11:36:29.000000Z",
                "created_at": "2024-04-18T11:36:29.000000Z",
                "updated_at": "2024-04-18T11:36:29.000000Z"
            }
        },
        {
            "id": 28,
            "order_id": 1,
            "user_id": 1,
            "note": "Maxime voluptatibus impedit ea omnis sint consequatur.",
            "created": "2024-04-18T11:36:31.000000Z",
            "user": {
                "id": 1,
                "name": "Geovanny Wyman",
                "email": "john@782media.com",
                "email_verified_at": "2024-04-18T11:36:29.000000Z",
                "created_at": "2024-04-18T11:36:29.000000Z",
                "updated_at": "2024-04-18T11:36:29.000000Z"
            }
        },
        {
            "id": 27,
            "order_id": 1,
            "user_id": 1,
            "note": "Et tenetur iusto illum distinctio laudantium fugit.",
            "created": "2024-04-18T11:36:31.000000Z",
            "user": {
                "id": 1,
                "name": "Geovanny Wyman",
                "email": "john@782media.com",
                "email_verified_at": "2024-04-18T11:36:29.000000Z",
                "created_at": "2024-04-18T11:36:29.000000Z",
                "updated_at": "2024-04-18T11:36:29.000000Z"
            }
        },
        {
            "id": 26,
            "order_id": 1,
            "user_id": 1,
            "note": "Est et recusandae et corporis dolor fugiat.",
            "created": "2024-04-18T11:36:31.000000Z",
            "user": {
                "id": 1,
                "name": "Geovanny Wyman",
                "email": "john@782media.com",
                "email_verified_at": "2024-04-18T11:36:29.000000Z",
                "created_at": "2024-04-18T11:36:29.000000Z",
                "updated_at": "2024-04-18T11:36:29.000000Z"
            }
        },
        {
            "id": 25,
            "order_id": 1,
            "user_id": 1,
            "note": "Sint qui recusandae voluptatibus consequatur.",
            "created": "2024-04-18T11:36:31.000000Z",
            "user": {
                "id": 1,
                "name": "Geovanny Wyman",
                "email": "john@782media.com",
                "email_verified_at": "2024-04-18T11:36:29.000000Z",
                "created_at": "2024-04-18T11:36:29.000000Z",
                "updated_at": "2024-04-18T11:36:29.000000Z"
            }
        },
        {
            "id": 24,
            "order_id": 1,
            "user_id": 1,
            "note": "Quod sint ab voluptas nihil enim consequatur.",
            "created": "2024-04-18T11:36:31.000000Z",
            "user": {
                "id": 1,
                "name": "Geovanny Wyman",
                "email": "john@782media.com",
                "email_verified_at": "2024-04-18T11:36:29.000000Z",
                "created_at": "2024-04-18T11:36:29.000000Z",
                "updated_at": "2024-04-18T11:36:29.000000Z"
            }
        },
        {
            "id": 23,
            "order_id": 1,
            "user_id": 1,
            "note": "Nobis ea illo pariatur ducimus perferendis.",
            "created": "2024-04-18T11:36:31.000000Z",
            "user": {
                "id": 1,
                "name": "Geovanny Wyman",
                "email": "john@782media.com",
                "email_verified_at": "2024-04-18T11:36:29.000000Z",
                "created_at": "2024-04-18T11:36:29.000000Z",
                "updated_at": "2024-04-18T11:36:29.000000Z"
            }
        },
        {
            "id": 22,
            "order_id": 1,
            "user_id": 1,
            "note": "Libero sint laborum cum ipsa autem occaecati et.",
            "created": "2024-04-18T11:36:31.000000Z",
            "user": {
                "id": 1,
                "name": "Geovanny Wyman",
                "email": "john@782media.com",
                "email_verified_at": "2024-04-18T11:36:29.000000Z",
                "created_at": "2024-04-18T11:36:29.000000Z",
                "updated_at": "2024-04-18T11:36:29.000000Z"
            }
        },
        {
            "id": 21,
            "order_id": 1,
            "user_id": 1,
            "note": "Autem quos cum iure veniam fugiat.",
            "created": "2024-04-18T11:36:31.000000Z",
            "user": {
                "id": 1,
                "name": "Geovanny Wyman",
                "email": "john@782media.com",
                "email_verified_at": "2024-04-18T11:36:29.000000Z",
                "created_at": "2024-04-18T11:36:29.000000Z",
                "updated_at": "2024-04-18T11:36:29.000000Z"
            }
        },
        {
            "id": 20,
            "order_id": 1,
            "user_id": 1,
            "note": "Tenetur excepturi doloremque et nam et minus.",
            "created": "2024-04-18T11:36:31.000000Z",
            "user": {
                "id": 1,
                "name": "Geovanny Wyman",
                "email": "john@782media.com",
                "email_verified_at": "2024-04-18T11:36:29.000000Z",
                "created_at": "2024-04-18T11:36:29.000000Z",
                "updated_at": "2024-04-18T11:36:29.000000Z"
            }
        },
        {
            "id": 19,
            "order_id": 1,
            "user_id": 1,
            "note": "Cum est sint nisi recusandae fuga.",
            "created": "2024-04-18T11:36:31.000000Z",
            "user": {
                "id": 1,
                "name": "Geovanny Wyman",
                "email": "john@782media.com",
                "email_verified_at": "2024-04-18T11:36:29.000000Z",
                "created_at": "2024-04-18T11:36:29.000000Z",
                "updated_at": "2024-04-18T11:36:29.000000Z"
            }
        },
        {
            "id": 18,
            "order_id": 1,
            "user_id": 1,
            "note": "Eos sequi inventore qui in repudiandae est.",
            "created": "2024-04-18T11:36:31.000000Z",
            "user": {
                "id": 1,
                "name": "Geovanny Wyman",
                "email": "john@782media.com",
                "email_verified_at": "2024-04-18T11:36:29.000000Z",
                "created_at": "2024-04-18T11:36:29.000000Z",
                "updated_at": "2024-04-18T11:36:29.000000Z"
            }
        }
    ],
    "first_page_url": "http:\/\/localhost:89\/api\/admin\/order\/1\/note?page=1",
    "from": 1,
    "last_page": 3,
    "last_page_url": "http:\/\/localhost:89\/api\/admin\/order\/1\/note?page=3",
    "links": [
        {
            "url": null,
            "label": "&laquo; Previous",
            "active": false
        },
        {
            "url": "http:\/\/localhost:89\/api\/admin\/order\/1\/note?page=1",
            "label": "1",
            "active": true
        },
        {
            "url": "http:\/\/localhost:89\/api\/admin\/order\/1\/note?page=2",
            "label": "2",
            "active": false
        },
        {
            "url": "http:\/\/localhost:89\/api\/admin\/order\/1\/note?page=3",
            "label": "3",
            "active": false
        },
        {
            "url": "http:\/\/localhost:89\/api\/admin\/order\/1\/note?page=2",
            "label": "Next &raquo;",
            "active": false
        }
    ],
    "next_page_url": "http:\/\/localhost:89\/api\/admin\/order\/1\/note?page=2",
    "path": "http:\/\/localhost:89\/api\/admin\/order\/1\/note",
    "per_page": 15,
    "prev_page_url": null,
    "to": 15,
    "total": 31
}