{
    "current_page": 1,
    "data": [
        {
            "id": 3,
            "attribute_id": 2,
            "display": "Golf Pro",
            "value": "",
            "rank": 11,
            "status": true,
            "attribute": {
                "id": 2,
                "name": "Specialty",
                "type_id": 2,
                "show_in_details": true,
                "show_in_search": true
            }
        },
        {
            "id": 5,
            "attribute_id": 2,
            "display": "Personal Trainer",
            "value": "",
            "rank": 1,
            "status": true,
            "attribute": {
                "id": 2,
                "name": "Specialty",
                "type_id": 2,
                "show_in_details": true,
                "show_in_search": true
            }
        },
        {
            "id": 6,
            "attribute_id": 1,
            "display": "Dominican Republic",
            "value": "",
            "rank": 2,
            "status": true,
            "attribute": {
                "id": 1,
                "name": "Country",
                "type_id": 1,
                "show_in_details": true,
                "show_in_search": true
            }
        },
        {
            "id": 9,
            "attribute_id": 1,
            "display": "Mexico",
            "value": "",
            "rank": 5,
            "status": true,
            "attribute": {
                "id": 1,
                "name": "Country",
                "type_id": 1,
                "show_in_details": true,
                "show_in_search": true
            }
        },
        {
            "id": 13,
            "attribute_id": 2,
            "display": "Zumba Inst.",
            "value": "",
            "rank": 5,
            "status": true,
            "attribute": {
                "id": 2,
                "name": "Specialty",
                "type_id": 2,
                "show_in_details": true,
                "show_in_search": true
            }
        },
        {
            "id": 14,
            "attribute_id": 2,
            "display": "Yoga Inst.",
            "value": "",
            "rank": 2,
            "status": true,
            "attribute": {
                "id": 2,
                "name": "Specialty",
                "type_id": 2,
                "show_in_details": true,
                "show_in_search": true
            }
        },
        {
            "id": 15,
            "attribute_id": 2,
            "display": "Pilates Inst.",
            "value": "",
            "rank": 4,
            "status": true,
            "attribute": {
                "id": 2,
                "name": "Specialty",
                "type_id": 2,
                "show_in_details": true,
                "show_in_search": true
            }
        },
        {
            "id": 16,
            "attribute_id": 2,
            "display": "Tennis Coach",
            "value": "",
            "rank": 3,
            "status": true,
            "attribute": {
                "id": 2,
                "name": "Specialty",
                "type_id": 2,
                "show_in_details": true,
                "show_in_search": true
            }
        },
        {
            "id": 18,
            "attribute_id": 2,
            "display": "Enthusiast Only",
            "value": "",
            "rank": 9,
            "status": false,
            "attribute": {
                "id": 2,
                "name": "Specialty",
                "type_id": 2,
                "show_in_details": true,
                "show_in_search": true
            }
        },
        {
            "id": 19,
            "attribute_id": 2,
            "display": "Club\/Studio Operator",
            "value": "",
            "rank": 8,
            "status": false,
            "attribute": {
                "id": 2,
                "name": "Specialty",
                "type_id": 2,
                "show_in_details": true,
                "show_in_search": true
            }
        },
        {
            "id": 21,
            "attribute_id": 2,
            "display": "CEC Povider",
            "value": "",
            "rank": 10,
            "status": false,
            "attribute": {
                "id": 2,
                "name": "Specialty",
                "type_id": 2,
                "show_in_details": true,
                "show_in_search": true
            }
        },
        {
            "id": 22,
            "attribute_id": 2,
            "display": "Nurse",
            "value": "",
            "rank": 11,
            "status": false,
            "attribute": {
                "id": 2,
                "name": "Specialty",
                "type_id": 2,
                "show_in_details": true,
                "show_in_search": true
            }
        },
        {
            "id": 23,
            "attribute_id": 2,
            "display": "Dietician",
            "value": "",
            "rank": 13,
            "status": false,
            "attribute": {
                "id": 2,
                "name": "Specialty",
                "type_id": 2,
                "show_in_details": true,
                "show_in_search": true
            }
        },
        {
            "id": 24,
            "attribute_id": 2,
            "display": "Chiropractor",
            "value": "",
            "rank": 14,
            "status": false,
            "attribute": {
                "id": 2,
                "name": "Specialty",
                "type_id": 2,
                "show_in_details": true,
                "show_in_search": true
            }
        },
        {
            "id": 25,
            "attribute_id": 2,
            "display": "Cycling Inst.",
            "value": "",
            "rank": 6,
            "status": true,
            "attribute": {
                "id": 2,
                "name": "Specialty",
                "type_id": 2,
                "show_in_details": true,
                "show_in_search": true
            }
        }
    ],
    "first_page_url": "http:\/\/localhost:89\/api\/admin\/attribute-option-search?page=1",
    "from": 1,
    "last_page": 23,
    "last_page_url": "http:\/\/localhost:89\/api\/admin\/attribute-option-search?page=23",
    "links": [
        {
            "url": null,
            "label": "&laquo; Previous",
            "active": false
        },
        {
            "url": "http:\/\/localhost:89\/api\/admin\/attribute-option-search?page=1",
            "label": "1",
            "active": true
        },
        {
            "url": "http:\/\/localhost:89\/api\/admin\/attribute-option-search?page=2",
            "label": "2",
            "active": false
        },
        {
            "url": "http:\/\/localhost:89\/api\/admin\/attribute-option-search?page=3",
            "label": "3",
            "active": false
        },
        {
            "url": "http:\/\/localhost:89\/api\/admin\/attribute-option-search?page=4",
            "label": "4",
            "active": false
        },
        {
            "url": "http:\/\/localhost:89\/api\/admin\/attribute-option-search?page=5",
            "label": "5",
            "active": false
        },
        {
            "url": "http:\/\/localhost:89\/api\/admin\/attribute-option-search?page=6",
            "label": "6",
            "active": false
        },
        {
            "url": "http:\/\/localhost:89\/api\/admin\/attribute-option-search?page=7",
            "label": "7",
            "active": false
        },
        {
            "url": "http:\/\/localhost:89\/api\/admin\/attribute-option-search?page=8",
            "label": "8",
            "active": false
        },
        {
            "url": "http:\/\/localhost:89\/api\/admin\/attribute-option-search?page=9",
            "label": "9",
            "active": false
        },
        {
            "url": "http:\/\/localhost:89\/api\/admin\/attribute-option-search?page=10",
            "label": "10",
            "active": false
        },
        {
            "url": null,
            "label": "...",
            "active": false
        },
        {
            "url": "http:\/\/localhost:89\/api\/admin\/attribute-option-search?page=22",
            "label": "22",
            "active": false
        },
        {
            "url": "http:\/\/localhost:89\/api\/admin\/attribute-option-search?page=23",
            "label": "23",
            "active": false
        },
        {
            "url": "http:\/\/localhost:89\/api\/admin\/attribute-option-search?page=2",
            "label": "Next &raquo;",
            "active": false
        }
    ],
    "next_page_url": "http:\/\/localhost:89\/api\/admin\/attribute-option-search?page=2",
    "path": "http:\/\/localhost:89\/api\/admin\/attribute-option-search",
    "per_page": 15,
    "prev_page_url": null,
    "to": 15,
    "total": 336
}