{
    "current_page": 1,
    "data": [
        {
            "id": 1,
            "name": "labore dolorum",
            "status": true
        },
        {
            "id": 2,
            "name": "non et",
            "status": true
        },
        {
            "id": 3,
            "name": "modi ad",
            "status": true
        },
        {
            "id": 4,
            "name": "libero itaque",
            "status": true
        },
        {
            "id": 5,
            "name": "voluptatem minus",
            "status": true
        },
        {
            "id": 6,
            "name": "quasi ex",
            "status": true
        },
        {
            "id": 7,
            "name": "molestiae quia",
            "status": true
        },
        {
            "id": 9,
            "name": "ducimus nisi",
            "status": true
        },
        {
            "id": 10,
            "name": "eos itaque",
            "status": true
        },
        {
            "id": 11,
            "name": "ullam nisi",
            "status": true
        },
        {
            "id": 12,
            "name": "labore non",
            "status": true
        },
        {
            "id": 13,
            "name": "quasi voluptate",
            "status": true
        },
        {
            "id": 14,
            "name": "accusamus in",
            "status": true
        },
        {
            "id": 15,
            "name": "sit cumque",
            "status": true
        },
        {
            "id": 16,
            "name": "dolores dolore",
            "status": true
        }
    ],
    "first_page_url": "http:\/\/localhost:89\/api\/admin\/custom-form?page=1",
    "from": 1,
    "last_page": 7,
    "last_page_url": "http:\/\/localhost:89\/api\/admin\/custom-form?page=7",
    "links": [
        {
            "url": null,
            "label": "&laquo; Previous",
            "active": false
        },
        {
            "url": "http:\/\/localhost:89\/api\/admin\/custom-form?page=1",
            "label": "1",
            "active": true
        },
        {
            "url": "http:\/\/localhost:89\/api\/admin\/custom-form?page=2",
            "label": "2",
            "active": false
        },
        {
            "url": "http:\/\/localhost:89\/api\/admin\/custom-form?page=3",
            "label": "3",
            "active": false
        },
        {
            "url": "http:\/\/localhost:89\/api\/admin\/custom-form?page=4",
            "label": "4",
            "active": false
        },
        {
            "url": "http:\/\/localhost:89\/api\/admin\/custom-form?page=5",
            "label": "5",
            "active": false
        },
        {
            "url": "http:\/\/localhost:89\/api\/admin\/custom-form?page=6",
            "label": "6",
            "active": false
        },
        {
            "url": "http:\/\/localhost:89\/api\/admin\/custom-form?page=7",
            "label": "7",
            "active": false
        },
        {
            "url": "http:\/\/localhost:89\/api\/admin\/custom-form?page=2",
            "label": "Next &raquo;",
            "active": false
        }
    ],
    "next_page_url": "http:\/\/localhost:89\/api\/admin\/custom-form?page=2",
    "path": "http:\/\/localhost:89\/api\/admin\/custom-form",
    "per_page": 15,
    "prev_page_url": null,
    "to": 15,
    "total": 97
}