{
    "current_page": 1,
    "data": [
        {
            "order_id": 1,
            "user_id": 1,
            "description": "Unassign account 22",
            "created": "2024-04-19T09:45:31.000000Z",
            "admin_user": {
                "id": 1,
                "name": "Geovanny Wyman",
                "email": "john@782media.com",
                "email_verified_at": "2024-04-18T11:36:29.000000Z",
                "created_at": "2024-04-18T11:36:29.000000Z",
                "updated_at": "2024-04-18T11:36:29.000000Z"
            }
        },
        {
            "order_id": 1,
            "user_id": 1,
            "description": "Assigned account 22",
            "created": "2024-04-19T09:44:55.000000Z",
            "admin_user": {
                "id": 1,
                "name": "Geovanny Wyman",
                "email": "john@782media.com",
                "email_verified_at": "2024-04-18T11:36:29.000000Z",
                "created_at": "2024-04-18T11:36:29.000000Z",
                "updated_at": "2024-04-18T11:36:29.000000Z"
            }
        },
        {
            "order_id": 1,
            "user_id": 1,
            "description": "Unassign account 24",
            "created": "2024-04-19T09:38:43.000000Z",
            "admin_user": {
                "id": 1,
                "name": "Geovanny Wyman",
                "email": "john@782media.com",
                "email_verified_at": "2024-04-18T11:36:29.000000Z",
                "created_at": "2024-04-18T11:36:29.000000Z",
                "updated_at": "2024-04-18T11:36:29.000000Z"
            }
        },
        {
            "order_id": 1,
            "user_id": 1,
            "description": "Assigned account 24",
            "created": "2024-04-19T09:38:38.000000Z",
            "admin_user": {
                "id": 1,
                "name": "Geovanny Wyman",
                "email": "john@782media.com",
                "email_verified_at": "2024-04-18T11:36:29.000000Z",
                "created_at": "2024-04-18T11:36:29.000000Z",
                "updated_at": "2024-04-18T11:36:29.000000Z"
            }
        },
        {
            "order_id": 1,
            "user_id": 1,
            "description": "Unassign account 22",
            "created": "2024-04-19T09:35:18.000000Z",
            "admin_user": {
                "id": 1,
                "name": "Geovanny Wyman",
                "email": "john@782media.com",
                "email_verified_at": "2024-04-18T11:36:29.000000Z",
                "created_at": "2024-04-18T11:36:29.000000Z",
                "updated_at": "2024-04-18T11:36:29.000000Z"
            }
        },
        {
            "order_id": 1,
            "user_id": 1,
            "description": "Assigned account 22",
            "created": "2024-04-19T09:33:08.000000Z",
            "admin_user": {
                "id": 1,
                "name": "Geovanny Wyman",
                "email": "john@782media.com",
                "email_verified_at": "2024-04-18T11:36:29.000000Z",
                "created_at": "2024-04-18T11:36:29.000000Z",
                "updated_at": "2024-04-18T11:36:29.000000Z"
            }
        },
        {
            "order_id": 1,
            "user_id": 1,
            "description": "Discount - Id: discount_id removed from item - Id: item_id",
            "created": "2024-04-18T12:03:51.000000Z",
            "admin_user": {
                "id": 1,
                "name": "Geovanny Wyman",
                "email": "john@782media.com",
                "email_verified_at": "2024-04-18T11:36:29.000000Z",
                "created_at": "2024-04-18T11:36:29.000000Z",
                "updated_at": "2024-04-18T11:36:29.000000Z"
            }
        },
        {
            "order_id": 1,
            "user_id": 1,
            "description": "Discount - Id: discount_id removed from item - Id: item_id",
            "created": "2024-04-18T11:51:59.000000Z",
            "admin_user": {
                "id": 1,
                "name": "Geovanny Wyman",
                "email": "john@782media.com",
                "email_verified_at": "2024-04-18T11:36:29.000000Z",
                "created_at": "2024-04-18T11:36:29.000000Z",
                "updated_at": "2024-04-18T11:36:29.000000Z"
            }
        },
        {
            "order_id": 1,
            "user_id": 1,
            "description": "Applied discount - Id: 6 to order item 4; Amount: 10; Adv Id: 16",
            "created": "2024-04-18T11:44:04.000000Z",
            "admin_user": {
                "id": 1,
                "name": "Geovanny Wyman",
                "email": "john@782media.com",
                "email_verified_at": "2024-04-18T11:36:29.000000Z",
                "created_at": "2024-04-18T11:36:29.000000Z",
                "updated_at": "2024-04-18T11:36:29.000000Z"
            }
        },
        {
            "order_id": 1,
            "user_id": 1,
            "description": "Applied discount - Id: 5 to order item 4; Amount: 10; Adv Id: 13",
            "created": "2024-04-18T11:44:02.000000Z",
            "admin_user": {
                "id": 1,
                "name": "Geovanny Wyman",
                "email": "john@782media.com",
                "email_verified_at": "2024-04-18T11:36:29.000000Z",
                "created_at": "2024-04-18T11:36:29.000000Z",
                "updated_at": "2024-04-18T11:36:29.000000Z"
            }
        },
        {
            "order_id": 1,
            "user_id": 1,
            "description": "Applied discount - Id: 3 to order item 4; Amount: 10; Adv Id: 7",
            "created": "2024-04-18T11:43:59.000000Z",
            "admin_user": {
                "id": 1,
                "name": "Geovanny Wyman",
                "email": "john@782media.com",
                "email_verified_at": "2024-04-18T11:36:29.000000Z",
                "created_at": "2024-04-18T11:36:29.000000Z",
                "updated_at": "2024-04-18T11:36:29.000000Z"
            }
        },
        {
            "order_id": 1,
            "user_id": 1,
            "description": "Discount - Id: discount_id removed from item - Id: item_id",
            "created": "2024-04-18T11:43:53.000000Z",
            "admin_user": {
                "id": 1,
                "name": "Geovanny Wyman",
                "email": "john@782media.com",
                "email_verified_at": "2024-04-18T11:36:29.000000Z",
                "created_at": "2024-04-18T11:36:29.000000Z",
                "updated_at": "2024-04-18T11:36:29.000000Z"
            }
        },
        {
            "order_id": 1,
            "user_id": 1,
            "description": "Discount - Id: discount_id removed from item - Id: item_id",
            "created": "2024-04-18T11:43:49.000000Z",
            "admin_user": {
                "id": 1,
                "name": "Geovanny Wyman",
                "email": "john@782media.com",
                "email_verified_at": "2024-04-18T11:36:29.000000Z",
                "created_at": "2024-04-18T11:36:29.000000Z",
                "updated_at": "2024-04-18T11:36:29.000000Z"
            }
        },
        {
            "order_id": 1,
            "user_id": 1,
            "description": "Applied discount - Id: 5 to order item 5; Amount: 10; Adv Id: 13",
            "created": "2024-04-18T11:43:41.000000Z",
            "admin_user": {
                "id": 1,
                "name": "Geovanny Wyman",
                "email": "john@782media.com",
                "email_verified_at": "2024-04-18T11:36:29.000000Z",
                "created_at": "2024-04-18T11:36:29.000000Z",
                "updated_at": "2024-04-18T11:36:29.000000Z"
            }
        },
        {
            "order_id": 1,
            "user_id": 1,
            "description": "Applied discount - Id: 2 to order item 5; Amount: 10; Adv Id: 4",
            "created": "2024-04-18T11:43:37.000000Z",
            "admin_user": {
                "id": 1,
                "name": "Geovanny Wyman",
                "email": "john@782media.com",
                "email_verified_at": "2024-04-18T11:36:29.000000Z",
                "created_at": "2024-04-18T11:36:29.000000Z",
                "updated_at": "2024-04-18T11:36:29.000000Z"
            }
        }
    ],
    "first_page_url": "http:\/\/localhost:89\/api\/admin\/order\/1\/activity?page=1",
    "from": 1,
    "last_page": 2,
    "last_page_url": "http:\/\/localhost:89\/api\/admin\/order\/1\/activity?page=2",
    "links": [
        {
            "url": null,
            "label": "&laquo; Previous",
            "active": false
        },
        {
            "url": "http:\/\/localhost:89\/api\/admin\/order\/1\/activity?page=1",
            "label": "1",
            "active": true
        },
        {
            "url": "http:\/\/localhost:89\/api\/admin\/order\/1\/activity?page=2",
            "label": "2",
            "active": false
        },
        {
            "url": "http:\/\/localhost:89\/api\/admin\/order\/1\/activity?page=2",
            "label": "Next &raquo;",
            "active": false
        }
    ],
    "next_page_url": "http:\/\/localhost:89\/api\/admin\/order\/1\/activity?page=2",
    "path": "http:\/\/localhost:89\/api\/admin\/order\/1\/activity",
    "per_page": 15,
    "prev_page_url": null,
    "to": 15,
    "total": 18
}