{
    "current_page": 1,
    "data": [
        {
            "id": 7493,
            "parent_product": null,
            "title": "Annual Enterprise Membership",
            "subtitle": "",
            "default_outofstockstatus_id": 1,
            "details_img_id": null,
            "category_img_id": null,
            "status": 1,
            "product_no": "",
            "combined_stock_qty": 108,
            "default_cost": 0,
            "weight": "0.00",
            "created": "2016-02-04T20:06:38.000000Z",
            "default_distributor_id": null,
            "fulfillment_rule_id": null,
            "url_name": "annual-enterprise-membership",
            "meta_title": "Annual Enterprise Membership",
            "meta_desc": "Annual Enterprise Membership",
            "meta_keywords": "Annual Enterprise Membership",
            "inventory_id": "",
            "customs_description": "",
            "tariff_number": "",
            "country_origin": "",
            "inventoried": false,
            "shared_inventory_id": null,
            "addtocart_setting": "0",
            "addtocart_external_label": null,
            "addtocart_external_link": null,
            "has_children": false,
            "deleted_at": null
        },
        {
            "id": 7494,
            "parent_product": null,
            "title": "Annual Medallion Membership",
            "subtitle": "",
            "default_outofstockstatus_id": 1,
            "details_img_id": null,
            "category_img_id": null,
            "status": 1,
            "product_no": "",
            "combined_stock_qty": 108,
            "default_cost": 0,
            "weight": "0.00",
            "created": "2016-02-04T20:06:09.000000Z",
            "default_distributor_id": null,
            "fulfillment_rule_id": null,
            "url_name": "annual-medallion-membership",
            "meta_title": "Annual Medallion Membership",
            "meta_desc": "Annual Medallion Membership",
            "meta_keywords": "Annual Medallion Membership",
            "inventory_id": "",
            "customs_description": "",
            "tariff_number": "",
            "country_origin": "",
            "inventoried": false,
            "shared_inventory_id": null,
            "addtocart_setting": "0",
            "addtocart_external_label": null,
            "addtocart_external_link": null,
            "has_children": false,
            "deleted_at": null
        },
        {
            "id": 7495,
            "parent_product": null,
            "title": "Annual Travel Membership",
            "subtitle": "",
            "default_outofstockstatus_id": 1,
            "details_img_id": null,
            "category_img_id": null,
            "status": 0,
            "product_no": "",
            "combined_stock_qty": 128,
            "default_cost": 0,
            "weight": "0.00",
            "created": "2016-02-04T20:04:32.000000Z",
            "default_distributor_id": null,
            "fulfillment_rule_id": null,
            "url_name": "annual-travel-membership",
            "meta_title": "Annual Travel Membership",
            "meta_desc": "Annual Travel Membership",
            "meta_keywords": "Annual Travel Membership",
            "inventory_id": "",
            "customs_description": "",
            "tariff_number": "",
            "country_origin": "",
            "inventoried": false,
            "shared_inventory_id": null,
            "addtocart_setting": "0",
            "addtocart_external_label": null,
            "addtocart_external_link": null,
            "has_children": false,
            "deleted_at": null
        },
        {
            "id": 7496,
            "parent_product": null,
            "title": "Annual Basic Membership",
            "subtitle": "",
            "default_outofstockstatus_id": 1,
            "details_img_id": null,
            "category_img_id": null,
            "status": 0,
            "product_no": "",
            "combined_stock_qty": 184,
            "default_cost": 0,
            "weight": "0.00",
            "created": "2016-02-04T19:59:11.000000Z",
            "default_distributor_id": null,
            "fulfillment_rule_id": 0,
            "url_name": "annual-basic-membership",
            "meta_title": "Annual Basic Membership",
            "meta_desc": "Annual Basic Membership",
            "meta_keywords": "Annual Basic Membership",
            "inventory_id": "",
            "customs_description": "",
            "tariff_number": "",
            "country_origin": "",
            "inventoried": false,
            "shared_inventory_id": "",
            "addtocart_setting": "0",
            "addtocart_external_label": "",
            "addtocart_external_link": "",
            "has_children": false,
            "deleted_at": null
        },
        {
            "id": 7497,
            "parent_product": null,
            "title": "aut consequatur quia esse et",
            "subtitle": "",
            "default_outofstockstatus_id": 1,
            "details_img_id": null,
            "category_img_id": null,
            "status": 1,
            "product_no": "",
            "combined_stock_qty": 210,
            "default_cost": 1193,
            "weight": "36.00",
            "created": "1984-07-25T01:22:27.000000Z",
            "default_distributor_id": 1,
            "fulfillment_rule_id": null,
            "url_name": "officia-sapiente",
            "meta_title": "aut consequatur quia esse et",
            "meta_desc": "",
            "meta_keywords": "",
            "inventory_id": "",
            "customs_description": "",
            "tariff_number": "",
            "country_origin": "",
            "inventoried": true,
            "shared_inventory_id": null,
            "addtocart_setting": null,
            "addtocart_external_label": null,
            "addtocart_external_link": null,
            "has_children": false,
            "deleted_at": null
        },
        {
            "id": 7498,
            "parent_product": null,
            "title": "fugit a voluptatem est iusto",
            "subtitle": "",
            "default_outofstockstatus_id": 1,
            "details_img_id": null,
            "category_img_id": null,
            "status": 1,
            "product_no": "",
            "combined_stock_qty": 144,
            "default_cost": 1663,
            "weight": "41.00",
            "created": "1984-12-09T14:05:17.000000Z",
            "default_distributor_id": 1,
            "fulfillment_rule_id": null,
            "url_name": "voluptatibus-in-voluptas",
            "meta_title": "fugit a voluptatem est iusto",
            "meta_desc": "",
            "meta_keywords": "",
            "inventory_id": "",
            "customs_description": "",
            "tariff_number": "",
            "country_origin": "",
            "inventoried": true,
            "shared_inventory_id": null,
            "addtocart_setting": null,
            "addtocart_external_label": null,
            "addtocart_external_link": null,
            "has_children": false,
            "deleted_at": null
        },
        {
            "id": 7499,
            "parent_product": null,
            "title": "dolor et quia molestiae et",
            "subtitle": "",
            "default_outofstockstatus_id": 1,
            "details_img_id": null,
            "category_img_id": null,
            "status": 1,
            "product_no": "",
            "combined_stock_qty": 107,
            "default_cost": 1464,
            "weight": "34.00",
            "created": "2023-06-01T14:58:15.000000Z",
            "default_distributor_id": 1,
            "fulfillment_rule_id": null,
            "url_name": "magnam-et",
            "meta_title": "dolor et quia molestiae et",
            "meta_desc": "",
            "meta_keywords": "",
            "inventory_id": "",
            "customs_description": "",
            "tariff_number": "",
            "country_origin": "",
            "inventoried": true,
            "shared_inventory_id": null,
            "addtocart_setting": null,
            "addtocart_external_label": null,
            "addtocart_external_link": null,
            "has_children": false,
            "deleted_at": null
        },
        {
            "id": 7500,
            "parent_product": null,
            "title": "doloremque maiores recusandae suscipit et",
            "subtitle": "",
            "default_outofstockstatus_id": 1,
            "details_img_id": null,
            "category_img_id": null,
            "status": 1,
            "product_no": "",
            "combined_stock_qty": 150,
            "default_cost": 3187,
            "weight": "12.00",
            "created": "2005-03-16T06:49:59.000000Z",
            "default_distributor_id": 1,
            "fulfillment_rule_id": null,
            "url_name": "et-harum",
            "meta_title": "doloremque maiores recusandae suscipit et",
            "meta_desc": "",
            "meta_keywords": "",
            "inventory_id": "",
            "customs_description": "",
            "tariff_number": "",
            "country_origin": "",
            "inventoried": true,
            "shared_inventory_id": null,
            "addtocart_setting": null,
            "addtocart_external_label": null,
            "addtocart_external_link": null,
            "has_children": false,
            "deleted_at": null
        },
        {
            "id": 7501,
            "parent_product": null,
            "title": "ut expedita nisi aut dolores",
            "subtitle": "",
            "default_outofstockstatus_id": 1,
            "details_img_id": null,
            "category_img_id": null,
            "status": 1,
            "product_no": "",
            "combined_stock_qty": 74,
            "default_cost": 4409,
            "weight": "92.00",
            "created": "2020-12-30T19:16:48.000000Z",
            "default_distributor_id": 1,
            "fulfillment_rule_id": null,
            "url_name": "hic-ex-vero",
            "meta_title": "ut expedita nisi aut dolores",
            "meta_desc": "",
            "meta_keywords": "",
            "inventory_id": "",
            "customs_description": "",
            "tariff_number": "",
            "country_origin": "",
            "inventoried": true,
            "shared_inventory_id": null,
            "addtocart_setting": null,
            "addtocart_external_label": null,
            "addtocart_external_link": null,
            "has_children": false,
            "deleted_at": null
        },
        {
            "id": 7502,
            "parent_product": null,
            "title": "repudiandae optio ducimus omnis et",
            "subtitle": "",
            "default_outofstockstatus_id": 1,
            "details_img_id": null,
            "category_img_id": null,
            "status": 1,
            "product_no": "",
            "combined_stock_qty": 104,
            "default_cost": 1499,
            "weight": "45.00",
            "created": "2017-09-15T08:47:32.000000Z",
            "default_distributor_id": 1,
            "fulfillment_rule_id": null,
            "url_name": "debitis-officiis-facilis",
            "meta_title": "repudiandae optio ducimus omnis et",
            "meta_desc": "",
            "meta_keywords": "",
            "inventory_id": "",
            "customs_description": "",
            "tariff_number": "",
            "country_origin": "",
            "inventoried": true,
            "shared_inventory_id": null,
            "addtocart_setting": null,
            "addtocart_external_label": null,
            "addtocart_external_link": null,
            "has_children": false,
            "deleted_at": null
        },
        {
            "id": 7503,
            "parent_product": null,
            "title": "distinctio ut porro qui et",
            "subtitle": "",
            "default_outofstockstatus_id": 1,
            "details_img_id": null,
            "category_img_id": null,
            "status": 1,
            "product_no": "",
            "combined_stock_qty": 62,
            "default_cost": 3509,
            "weight": "79.00",
            "created": "1979-06-24T02:24:28.000000Z",
            "default_distributor_id": 1,
            "fulfillment_rule_id": null,
            "url_name": "eaque-impedit",
            "meta_title": "distinctio ut porro qui et",
            "meta_desc": "",
            "meta_keywords": "",
            "inventory_id": "",
            "customs_description": "",
            "tariff_number": "",
            "country_origin": "",
            "inventoried": true,
            "shared_inventory_id": null,
            "addtocart_setting": null,
            "addtocart_external_label": null,
            "addtocart_external_link": null,
            "has_children": false,
            "deleted_at": null
        },
        {
            "id": 7504,
            "parent_product": null,
            "title": "sed dolores eius ea pariatur",
            "subtitle": "",
            "default_outofstockstatus_id": 1,
            "details_img_id": null,
            "category_img_id": null,
            "status": 1,
            "product_no": "",
            "combined_stock_qty": 178,
            "default_cost": 3394,
            "weight": "79.00",
            "created": "2011-06-11T03:35:25.000000Z",
            "default_distributor_id": 1,
            "fulfillment_rule_id": null,
            "url_name": "labore-odio",
            "meta_title": "sed dolores eius ea pariatur",
            "meta_desc": "",
            "meta_keywords": "",
            "inventory_id": "",
            "customs_description": "",
            "tariff_number": "",
            "country_origin": "",
            "inventoried": true,
            "shared_inventory_id": null,
            "addtocart_setting": null,
            "addtocart_external_label": null,
            "addtocart_external_link": null,
            "has_children": false,
            "deleted_at": null
        },
        {
            "id": 7505,
            "parent_product": null,
            "title": "suscipit rerum atque sed quasi",
            "subtitle": "",
            "default_outofstockstatus_id": 1,
            "details_img_id": null,
            "category_img_id": null,
            "status": 1,
            "product_no": "",
            "combined_stock_qty": 70,
            "default_cost": 1531,
            "weight": "65.00",
            "created": "1993-07-29T01:55:47.000000Z",
            "default_distributor_id": 1,
            "fulfillment_rule_id": null,
            "url_name": "eaque-deserunt-et",
            "meta_title": "suscipit rerum atque sed quasi",
            "meta_desc": "",
            "meta_keywords": "",
            "inventory_id": "",
            "customs_description": "",
            "tariff_number": "",
            "country_origin": "",
            "inventoried": true,
            "shared_inventory_id": null,
            "addtocart_setting": null,
            "addtocart_external_label": null,
            "addtocart_external_link": null,
            "has_children": false,
            "deleted_at": null
        },
        {
            "id": 7506,
            "parent_product": null,
            "title": "vel facilis nemo vel omnis",
            "subtitle": "",
            "default_outofstockstatus_id": 1,
            "details_img_id": null,
            "category_img_id": null,
            "status": 1,
            "product_no": "",
            "combined_stock_qty": 219,
            "default_cost": 2145,
            "weight": "97.00",
            "created": "2000-04-27T10:06:01.000000Z",
            "default_distributor_id": 1,
            "fulfillment_rule_id": null,
            "url_name": "voluptatum-provident",
            "meta_title": "vel facilis nemo vel omnis",
            "meta_desc": "",
            "meta_keywords": "",
            "inventory_id": "",
            "customs_description": "",
            "tariff_number": "",
            "country_origin": "",
            "inventoried": true,
            "shared_inventory_id": null,
            "addtocart_setting": null,
            "addtocart_external_label": null,
            "addtocart_external_link": null,
            "has_children": false,
            "deleted_at": null
        },
        {
            "id": 7507,
            "parent_product": null,
            "title": "repellendus dolores est vero error",
            "subtitle": "",
            "default_outofstockstatus_id": 1,
            "details_img_id": null,
            "category_img_id": null,
            "status": 1,
            "product_no": "",
            "combined_stock_qty": 108,
            "default_cost": 3868,
            "weight": "36.00",
            "created": "1982-11-17T18:00:47.000000Z",
            "default_distributor_id": 1,
            "fulfillment_rule_id": null,
            "url_name": "voluptatibus-sed",
            "meta_title": "repellendus dolores est vero error",
            "meta_desc": "",
            "meta_keywords": "",
            "inventory_id": "",
            "customs_description": "",
            "tariff_number": "",
            "country_origin": "",
            "inventoried": true,
            "shared_inventory_id": null,
            "addtocart_setting": null,
            "addtocart_external_label": null,
            "addtocart_external_link": null,
            "has_children": false,
            "deleted_at": null
        }
    ],
    "first_page_url": "http:\/\/localhost:89\/api\/admin\/product?page=1",
    "from": 1,
    "last_page": 11,
    "last_page_url": "http:\/\/localhost:89\/api\/admin\/product?page=11",
    "links": [
        {
            "url": null,
            "label": "&laquo; Previous",
            "active": false
        },
        {
            "url": "http:\/\/localhost:89\/api\/admin\/product?page=1",
            "label": "1",
            "active": true
        },
        {
            "url": "http:\/\/localhost:89\/api\/admin\/product?page=2",
            "label": "2",
            "active": false
        },
        {
            "url": "http:\/\/localhost:89\/api\/admin\/product?page=3",
            "label": "3",
            "active": false
        },
        {
            "url": "http:\/\/localhost:89\/api\/admin\/product?page=4",
            "label": "4",
            "active": false
        },
        {
            "url": "http:\/\/localhost:89\/api\/admin\/product?page=5",
            "label": "5",
            "active": false
        },
        {
            "url": "http:\/\/localhost:89\/api\/admin\/product?page=6",
            "label": "6",
            "active": false
        },
        {
            "url": "http:\/\/localhost:89\/api\/admin\/product?page=7",
            "label": "7",
            "active": false
        },
        {
            "url": "http:\/\/localhost:89\/api\/admin\/product?page=8",
            "label": "8",
            "active": false
        },
        {
            "url": "http:\/\/localhost:89\/api\/admin\/product?page=9",
            "label": "9",
            "active": false
        },
        {
            "url": "http:\/\/localhost:89\/api\/admin\/product?page=10",
            "label": "10",
            "active": false
        },
        {
            "url": "http:\/\/localhost:89\/api\/admin\/product?page=11",
            "label": "11",
            "active": false
        },
        {
            "url": "http:\/\/localhost:89\/api\/admin\/product?page=2",
            "label": "Next &raquo;",
            "active": false
        }
    ],
    "next_page_url": "http:\/\/localhost:89\/api\/admin\/product?page=2",
    "path": "http:\/\/localhost:89\/api\/admin\/product",
    "per_page": 15,
    "prev_page_url": null,
    "to": 15,
    "total": 157
}